\relax 
\providecommand*\new@tpo@label[2]{}
\@nameuse{bbl@beforestart}
\catcode `"\active 
\babel@aux{ngerman}{}
\@writefile{toc}{\contentsline {section}{\numberline {1}Einleitung}{2}\protected@file@percent }
\@writefile{lof}{\contentsline {figure}{\numberline {1}{\ignorespaces allgraph}}{2}\protected@file@percent }
\newlabel{V1}{{1}{2}}
\@writefile{toc}{\contentsline {subsection}{\numberline {1.1}Formeln}{2}\protected@file@percent }
\global\@namedef{scr@dte@section@lastmaxnumwidth}{9.8975pt}
\global\@namedef{scr@dte@subsection@lastmaxnumwidth}{16.77362pt}
